<b>Graphs</b>

                +-----+------+------+--------+--------+-----+-------+
                | <a href='__SITEURL__/servers/graph-314.html'>314</a> | <a href='__SITEURL__/servers/graph-chip.html'>Chip</a> | Dale | <a href='__SITEURL__/servers/graph-skippy.html'>Skippy</a> | <a href='__SITEURL__/servers/graph-slappy.html'>Slappy</a> | <a href='__SITEURL__/servers/graph-irc.html'>IRC</a> | <a href='__SITEURL__/servers/graph-lists.html'>Lists</a> |
                +-----+------+------+--------+--------+-----+-------+
